-------------------------------------------------------------------------------
Test set: org.aksw.owl2sparql.OWLAxiomToSPARQLConverterTest
-------------------------------------------------------------------------------
Tests run: 19, Failures: 0, Errors: 0, Skipped: 0, Time elapsed: 3.939 sec
