<?xml version="1.0" encoding="UTF-8" ?>
<testsuite tests="19" failures="0" name="org.aksw.owl2sparql.OWLAxiomToSPARQLConverterTest" time="1.179" errors="0" skipped="0">
  <properties>
    <property name="java.runtime.name" value="Java(TM) SE Runtime Environment"/>
    <property name="sun.boot.library.path" value="/Library/Java/JavaVirtualMachines/jdk1.8.0_25.jdk/Contents/Home/jre/lib"/>
    <property name="java.vm.version" value="25.25-b02"/>
    <property name="gopherProxySet" value="false"/>
    <property name="java.vm.vendor" value="Oracle Corporation"/>
    <property name="maven.multiModuleProjectDirectory" value="/Users/joyce/Downloads/OWL2SPARQL-master"/>
    <property name="java.vendor.url" value="http://java.oracle.com/"/>
    <property name="path.separator" value=":"/>
    <property name="guice.disable.misplaced.annotation.check" value="true"/>
    <property name="java.vm.name" value="Java HotSpot(TM) 64-Bit Server VM"/>
    <property name="file.encoding.pkg" value="sun.io"/>
    <property name="user.country" value="US"/>
    <property name="sun.java.launcher" value="SUN_STANDARD"/>
    <property name="sun.os.patch.level" value="unknown"/>
    <property name="java.vm.specification.name" value="Java Virtual Machine Specification"/>
    <property name="user.dir" value="/Users/joyce/Downloads/OWL2SPARQL-master"/>
    <property name="java.runtime.version" value="1.8.0_25-b17"/>
    <property name="java.awt.graphicsenv" value="sun.awt.CGraphicsEnvironment"/>
    <property name="java.endorsed.dirs" value="/Library/Java/JavaVirtualMachines/jdk1.8.0_25.jdk/Contents/Home/jre/lib/endorsed"/>
    <property name="os.arch" value="x86_64"/>
    <property name="java.io.tmpdir" value="/var/folders/sy/96k1z1t95j9b907bw5dxyb500000gq/T/"/>
    <property name="line.separator" value="
"/>
    <property name="java.vm.specification.vendor" value="Oracle Corporation"/>
    <property name="os.name" value="Mac OS X"/>
    <property name="classworlds.conf" value="/Users/joyce/Java/data-services/.metadata/.plugins/org.eclipse.m2e.launching/launches/m2conf3285237717033658398.tmp"/>
    <property name="sun.jnu.encoding" value="UTF-8"/>
    <property name="java.library.path" value="/Users/joyce/Library/Java/Extensions:/Library/Java/Extensions:/Network/Library/Java/Extensions:/System/Library/Java/Extensions:/usr/lib/java:."/>
    <property name="java.specification.name" value="Java Platform API Specification"/>
    <property name="java.class.version" value="52.0"/>
    <property name="sun.management.compiler" value="HotSpot 64-Bit Tiered Compilers"/>
    <property name="os.version" value="10.11.3"/>
    <property name="http.nonProxyHosts" value="local|*.local|169.254/16|*.169.254/16"/>
    <property name="user.home" value="/Users/joyce"/>
    <property name="user.timezone" value="America/New_York"/>
    <property name="java.awt.printerjob" value="sun.lwawt.macosx.CPrinterJob"/>
    <property name="java.specification.version" value="1.8"/>
    <property name="file.encoding" value="UTF-8"/>
    <property name="user.name" value="joyce"/>
    <property name="java.class.path" value="/Users/joyce/testenv/Eclipse.app/Contents/Eclipse/plugins/org.eclipse.m2e.maven.runtime_1.6.2.20150902-0001/jars/plexus-classworlds-2.5.2.jar"/>
    <property name="java.vm.specification.version" value="1.8"/>
    <property name="sun.arch.data.model" value="64"/>
    <property name="java.home" value="/Library/Java/JavaVirtualMachines/jdk1.8.0_25.jdk/Contents/Home/jre"/>
    <property name="sun.java.command" value="org.codehaus.plexus.classworlds.launcher.Launcher -B install"/>
    <property name="java.specification.vendor" value="Oracle Corporation"/>
    <property name="user.language" value="en"/>
    <property name="awt.toolkit" value="sun.lwawt.macosx.LWCToolkit"/>
    <property name="java.vm.info" value="mixed mode"/>
    <property name="java.version" value="1.8.0_25"/>
    <property name="java.ext.dirs" value="/Users/joyce/Library/Java/Extensions:/Library/Java/JavaVirtualMachines/jdk1.8.0_25.jdk/Contents/Home/jre/lib/ext:/Library/Java/Extensions:/Network/Library/Java/Extensions:/System/Library/Java/Extensions:/usr/lib/java"/>
    <property name="sun.boot.class.path" value="/Library/Java/JavaVirtualMachines/jdk1.8.0_25.jdk/Contents/Home/jre/lib/resources.jar:/Library/Java/JavaVirtualMachines/jdk1.8.0_25.jdk/Contents/Home/jre/lib/rt.jar:/Library/Java/JavaVirtualMachines/jdk1.8.0_25.jdk/Contents/Home/jre/lib/sunrsasign.jar:/Library/Java/JavaVirtualMachines/jdk1.8.0_25.jdk/Contents/Home/jre/lib/jsse.jar:/Library/Java/JavaVirtualMachines/jdk1.8.0_25.jdk/Contents/Home/jre/lib/jce.jar:/Library/Java/JavaVirtualMachines/jdk1.8.0_25.jdk/Contents/Home/jre/lib/charsets.jar:/Library/Java/JavaVirtualMachines/jdk1.8.0_25.jdk/Contents/Home/jre/lib/jfr.jar:/Library/Java/JavaVirtualMachines/jdk1.8.0_25.jdk/Contents/Home/jre/classes"/>
    <property name="java.vendor" value="Oracle Corporation"/>
    <property name="maven.home" value="/Users/joyce/Downloads/OWL2SPARQL-master/EMBEDDED"/>
    <property name="file.separator" value="/"/>
    <property name="java.vendor.url.bug" value="http://bugreport.sun.com/bugreport/"/>
    <property name="sun.cpu.endian" value="little"/>
    <property name="sun.io.unicode.encoding" value="UnicodeBig"/>
    <property name="socksNonProxyHosts" value="local|*.local|169.254/16|*.169.254/16"/>
    <property name="ftp.nonProxyHosts" value="local|*.local|169.254/16|*.169.254/16"/>
    <property name="sun.cpu.isalist" value=""/>
  </properties>
  <testcase classname="org.aksw.owl2sparql.OWLAxiomToSPARQLConverterTest" name="testSubClassOfAxiom" time="0.933"/>
  <testcase classname="org.aksw.owl2sparql.OWLAxiomToSPARQLConverterTest" name="testSubPropertyAxiom" time="0.007"/>
  <testcase classname="org.aksw.owl2sparql.OWLAxiomToSPARQLConverterTest" name="testTransitiveObjectPropertyAxiom" time="0.008"/>
  <testcase classname="org.aksw.owl2sparql.OWLAxiomToSPARQLConverterTest" name="testDisjointUnionAxiom" time="0.05"/>
  <testcase classname="org.aksw.owl2sparql.OWLAxiomToSPARQLConverterTest" name="testIrreflexiveObjectPropertyAxiom" time="0.013"/>
  <testcase classname="org.aksw.owl2sparql.OWLAxiomToSPARQLConverterTest" name="testInversePropertiesAxiom" time="0.018"/>
  <testcase classname="org.aksw.owl2sparql.OWLAxiomToSPARQLConverterTest" name="testObjectPropertyRangeAxiom" time="0.017"/>
  <testcase classname="org.aksw.owl2sparql.OWLAxiomToSPARQLConverterTest" name="testDisjointPropertiesAxiom" time="0.029"/>
  <testcase classname="org.aksw.owl2sparql.OWLAxiomToSPARQLConverterTest" name="testDataPropertyRangeAxiom" time="0.034"/>
  <testcase classname="org.aksw.owl2sparql.OWLAxiomToSPARQLConverterTest" name="testSubPropertyChainAxiom" time="0.006"/>
  <testcase classname="org.aksw.owl2sparql.OWLAxiomToSPARQLConverterTest" name="testPropertyDomainAxiom" time="0.005"/>
  <testcase classname="org.aksw.owl2sparql.OWLAxiomToSPARQLConverterTest" name="testReflexiveObjectPropertyAxiom" time="0.013"/>
  <testcase classname="org.aksw.owl2sparql.OWLAxiomToSPARQLConverterTest" name="testFunctionalObjectPropertyAxiom" time="0.009"/>
  <testcase classname="org.aksw.owl2sparql.OWLAxiomToSPARQLConverterTest" name="testSymmetricObjectPropertyAxiom" time="0.004"/>
  <testcase classname="org.aksw.owl2sparql.OWLAxiomToSPARQLConverterTest" name="testEquivalentClassesAxiom" time="0.006"/>
  <testcase classname="org.aksw.owl2sparql.OWLAxiomToSPARQLConverterTest" name="testAsymmetricObjectPropertyAxiom" time="0.007"/>
  <testcase classname="org.aksw.owl2sparql.OWLAxiomToSPARQLConverterTest" name="testDisjointClassesAxiom" time="0.01"/>
  <testcase classname="org.aksw.owl2sparql.OWLAxiomToSPARQLConverterTest" name="testEquivalentPropertiesAxiom" time="0.004"/>
  <testcase classname="org.aksw.owl2sparql.OWLAxiomToSPARQLConverterTest" name="testInverseFunctionalObjectPropertyAxiom" time="0.006"/>
</testsuite>